Suite/Test/Step Name,Browser,Description,Tag,Start time,End time,Duration,Status
23-24-PDF,Chrome 120.0.0.0,,,30-01-2024 11:11:01,30-01-2024 11:11:44,43.295s,PASSED
,,,,,,,
Test Cases/COMET_Auto_Testing/TaxPL_Equity/23-24_PDF,Chrome 120.0.0.0,,,30-01-2024 11:11:01,30-01-2024 11:11:44,43.048s,PASSED
"openBrowser("""")",Chrome 120.0.0.0,,,30-01-2024 11:11:01,30-01-2024 11:11:04,2.378s,PASSED
maximizeWindow(),Chrome 120.0.0.0,,,30-01-2024 11:11:04,30-01-2024 11:11:04,0.192s,PASSED
"navigateToUrl(""https://comet.jainam.in/#/startup"")",Chrome 120.0.0.0,,,30-01-2024 11:11:04,30-01-2024 11:11:05,1.406s,PASSED
"click(findTestObject(""Object Repository/Page_Comet/a_LOGIN WITH SPACE""))",Chrome 120.0.0.0,,,30-01-2024 11:11:05,30-01-2024 11:11:08,2.971s,PASSED
"setText(findTestObject(""user_id/input_User Id_text_form ng-pristine ng-invalid ng-touched""), ""M3903"")",Chrome 120.0.0.0,,,30-01-2024 11:11:08,30-01-2024 11:11:10,1.395s,PASSED
"setText(findTestObject(""user_pass/input_Password_LoginPassword""), ""Nirav@789"")",Chrome 120.0.0.0,,,30-01-2024 11:11:10,30-01-2024 11:11:10,0.791s,PASSED
"sendKeys(findTestObject(""loginnow_button/a_Login Now""), Keys.chord(ENTER))",Chrome 120.0.0.0,,,30-01-2024 11:11:10,30-01-2024 11:11:11,0.432s,PASSED
"setText(findTestObject(""Login_ID_01/input_text_form ng-untouched ng-pristine ng_7a20de""), ""8"")",Chrome 120.0.0.0,,,30-01-2024 11:11:11,30-01-2024 11:11:13,1.837s,PASSED
"setText(findTestObject(""Login_ID_02/input_Enter Pin_text_form ng-untouched ng-pristine ng-invalid""), ""8"")",Chrome 120.0.0.0,,,30-01-2024 11:11:13,30-01-2024 11:11:13,0.661s,PASSED
"setText(findTestObject(""Login_ID_03/input_Enter Pin_text_form ng-untouched ng-pristine ng-invalid""), ""8"")",Chrome 120.0.0.0,,,30-01-2024 11:11:13,30-01-2024 11:11:14,0.711s,PASSED
"setText(findTestObject(""Login_ID_04/input_Enter Pin_text_form ng-untouched ng-pristine ng-invalid""), ""8"")",Chrome 120.0.0.0,,,30-01-2024 11:11:14,30-01-2024 11:11:15,0.722s,PASSED
"click(findTestObject(""Object Repository/Page_Dashboard  Comet/a_Reports""))",Chrome 120.0.0.0,,,30-01-2024 11:11:15,30-01-2024 11:11:28,12.690s,PASSED
"click(findTestObject(""Object Repository/Page_Dashboard  Comet/a_Tax PL""))",Chrome 120.0.0.0,,,30-01-2024 11:11:28,30-01-2024 11:11:28,0.606s,PASSED
"click(findTestObject(""Object Repository/Page_Dashboard  Comet/button_View""))",Chrome 120.0.0.0,,,30-01-2024 11:11:28,30-01-2024 11:11:29,0.985s,PASSED
"click(findTestObject(""Object Repository/Page_Dashboard  Comet/a_Download PDF Tax PL report for Equity Segment""))",Chrome 120.0.0.0,,,30-01-2024 11:11:29,30-01-2024 11:11:44,14.853s,PASSED
