Suite/Test/Step Name,Browser,Description,Tag,Start time,End time,Duration,Status
2023-2024_Mail_PDF,Chrome 120.0.0.0,,,30-01-2024 11:26:32,30-01-2024 11:27:12,40.291s,PASSED
,,,,,,,
Test Cases/COMET_Auto_Testing/TaxPL_Equity/2023-2024_Mail PDF,Chrome 120.0.0.0,,,30-01-2024 11:26:32,30-01-2024 11:27:12,40.050s,PASSED
"openBrowser("""")",Chrome 120.0.0.0,,,30-01-2024 11:26:33,30-01-2024 11:26:35,2.649s,PASSED
maximizeWindow(),Chrome 120.0.0.0,,,30-01-2024 11:26:35,30-01-2024 11:26:36,0.167s,PASSED
"navigateToUrl(""https://comet.jainam.in/#/startup"")",Chrome 120.0.0.0,,,30-01-2024 11:26:36,30-01-2024 11:26:38,2.245s,PASSED
"click(findTestObject(""Object Repository/Page_Comet/a_LOGIN WITH SPACE""))",Chrome 120.0.0.0,,,30-01-2024 11:26:38,30-01-2024 11:26:41,3.650s,PASSED
"setText(findTestObject(""user_id/input_User Id_text_form ng-pristine ng-invalid ng-touched""), ""M3903"")",Chrome 120.0.0.0,,,30-01-2024 11:26:41,30-01-2024 11:26:44,2.399s,PASSED
"setText(findTestObject(""user_pass/input_Password_LoginPassword""), ""Nirav@789"")",Chrome 120.0.0.0,,,30-01-2024 11:26:44,30-01-2024 11:26:45,0.742s,PASSED
"sendKeys(findTestObject(""loginnow_button/a_Login Now""), Keys.chord(ENTER))",Chrome 120.0.0.0,,,30-01-2024 11:26:45,30-01-2024 11:26:45,0.496s,PASSED
"setText(findTestObject(""Login_ID_01/input_text_form ng-untouched ng-pristine ng_7a20de""), ""8"")",Chrome 120.0.0.0,,,30-01-2024 11:26:45,30-01-2024 11:26:47,1.496s,PASSED
"setText(findTestObject(""Login_ID_02/input_Enter Pin_text_form ng-untouched ng-pristine ng-invalid""), ""8"")",Chrome 120.0.0.0,,,30-01-2024 11:26:47,30-01-2024 11:26:47,0.765s,PASSED
"setText(findTestObject(""Login_ID_03/input_Enter Pin_text_form ng-untouched ng-pristine ng-invalid""), ""8"")",Chrome 120.0.0.0,,,30-01-2024 11:26:47,30-01-2024 11:26:48,0.744s,PASSED
"setText(findTestObject(""Login_ID_04/input_Enter Pin_text_form ng-untouched ng-pristine ng-invalid""), ""8"")",Chrome 120.0.0.0,,,30-01-2024 11:26:48,30-01-2024 11:26:49,0.804s,PASSED
"click(findTestObject(""Object Repository/Page_Dashboard  Comet/a_Reports""))",Chrome 120.0.0.0,,,30-01-2024 11:26:49,30-01-2024 11:26:54,5.110s,PASSED
"click(findTestObject(""Object Repository/Page_Dashboard  Comet/a_Tax PL""))",Chrome 120.0.0.0,,,30-01-2024 11:26:54,30-01-2024 11:26:54,0.493s,PASSED
"click(findTestObject(""Object Repository/Page_Dashboard  Comet/span_EQUITY""))",Chrome 120.0.0.0,,,30-01-2024 11:26:54,30-01-2024 11:26:58,3.765s,PASSED
"click(findTestObject(""Object Repository/Page_Dashboard  Comet/li_EQUITY""))",Chrome 120.0.0.0,,,30-01-2024 11:26:58,30-01-2024 11:27:02,3.675s,PASSED
"click(findTestObject(""Object Repository/Page_Dashboard  Comet/span_2023-2024""))",Chrome 120.0.0.0,,,30-01-2024 11:27:02,30-01-2024 11:27:06,3.647s,PASSED
"click(findTestObject(""Object Repository/Page_Dashboard  Comet/li_2023-2024""))",Chrome 120.0.0.0,,,30-01-2024 11:27:06,30-01-2024 11:27:09,3.480s,PASSED
"click(findTestObject(""Object Repository/Page_Dashboard  Comet/button_View""))",Chrome 120.0.0.0,,,30-01-2024 11:27:09,30-01-2024 11:27:10,0.534s,PASSED
"click(findTestObject(""Object Repository/Page_Dashboard  Comet/a_EMail PDF Tax PL report for Equity Segment""))",Chrome 120.0.0.0,,,30-01-2024 11:27:10,30-01-2024 11:27:12,2.665s,PASSED
