Suite/Test/Step Name,Browser,Description,Tag,Start time,End time,Duration,Status
Report_FY_23-24,Chrome 121.0.0.0,,,05-02-2024 11:49:27,05-02-2024 11:49:59,31.210s,PASSED
,,,,,,,
Test Cases/COMET_Auto_Testing/TaxPL_Currency/Report_FY_23-24,Chrome 121.0.0.0,,,05-02-2024 11:49:28,05-02-2024 11:49:59,30.837s,PASSED
"openBrowser("""")",Chrome 121.0.0.0,,,05-02-2024 11:49:29,05-02-2024 11:49:32,3.927s,PASSED
maximizeWindow(),Chrome 121.0.0.0,,,05-02-2024 11:49:32,05-02-2024 11:49:33,0.214s,PASSED
"navigateToUrl(""https://comet.jainam.in/#/startup"")",Chrome 121.0.0.0,,,05-02-2024 11:49:33,05-02-2024 11:49:34,1.787s,PASSED
"click(findTestObject(""Object Repository/Page_Comet/a_LOGIN WITH SPACE""))",Chrome 121.0.0.0,,,05-02-2024 11:49:34,05-02-2024 11:49:39,4.185s,PASSED
"setText(findTestObject(""user_id/input_User Id_text_form ng-pristine ng-invalid ng-touched""), ""M3903"")",Chrome 121.0.0.0,,,05-02-2024 11:49:39,05-02-2024 11:49:40,1.132s,PASSED
"setText(findTestObject(""user_pass/input_Password_LoginPassword""), ""Nirav@789"")",Chrome 121.0.0.0,,,05-02-2024 11:49:40,05-02-2024 11:49:41,0.856s,PASSED
"sendKeys(findTestObject(""loginnow_button/a_Login Now""), Keys.chord(ENTER))",Chrome 121.0.0.0,,,05-02-2024 11:49:41,05-02-2024 11:49:41,0.524s,PASSED
"setText(findTestObject(""Login_ID_01/input_text_form ng-untouched ng-pristine ng_7a20de""), ""8"")",Chrome 121.0.0.0,,,05-02-2024 11:49:41,05-02-2024 11:49:43,1.750s,PASSED
"setText(findTestObject(""Login_ID_02/input_Enter Pin_text_form ng-untouched ng-pristine ng-invalid""), ""8"")",Chrome 121.0.0.0,,,05-02-2024 11:49:43,05-02-2024 11:49:44,1.257s,PASSED
"setText(findTestObject(""Login_ID_03/input_Enter Pin_text_form ng-untouched ng-pristine ng-invalid""), ""8"")",Chrome 121.0.0.0,,,05-02-2024 11:49:44,05-02-2024 11:49:45,0.805s,PASSED
"setText(findTestObject(""Login_ID_04/input_Enter Pin_text_form ng-untouched ng-pristine ng-invalid""), ""8"")",Chrome 121.0.0.0,,,05-02-2024 11:49:45,05-02-2024 11:49:46,0.819s,PASSED
"click(findTestObject(""Object Repository/Page_Dashboard  Comet/a_Reports""))",Chrome 121.0.0.0,,,05-02-2024 11:49:46,05-02-2024 11:49:55,8.699s,PASSED
"click(findTestObject(""Object Repository/Page_Dashboard  Comet/a_FNO Tax PL""))",Chrome 121.0.0.0,,,05-02-2024 11:49:55,05-02-2024 11:49:55,0.662s,PASSED
"click(findTestObject(""TaxPL_CURRENCY/Page_Dashboard  Comet/kendo-dropdownlist_NSE_FNO""))",Chrome 121.0.0.0,,,05-02-2024 11:49:55,05-02-2024 11:49:57,1.809s,PASSED
"click(findTestObject(""TaxPL_CURRENCY/Page_Dashboard  Comet/li_CURRENCY""))",Chrome 121.0.0.0,,,05-02-2024 11:49:57,05-02-2024 11:49:58,1.089s,PASSED
"click(findTestObject(""Object Repository/Page_Dashboard  Comet/button_Download""))",Chrome 121.0.0.0,,,05-02-2024 11:49:58,05-02-2024 11:49:59,0.541s,PASSED
