Suite/Test/Step Name,Browser,Description,Tag,Start time,End time,Duration,Status
FY_23-24,Chrome 120.0.0.0,,,29-01-2024 09:53:04,29-01-2024 09:53:51,47.376s,PASSED
,,,,,,,
Test Cases/COMET_Auto_Testing/DIVIDEND_REPORT/FY_23-24,Chrome 120.0.0.0,,,29-01-2024 09:53:04,29-01-2024 09:53:51,47.007s,PASSED
"openBrowser("""")",Chrome 120.0.0.0,,,29-01-2024 09:53:05,29-01-2024 09:53:07,2.516s,PASSED
maximizeWindow(),Chrome 120.0.0.0,,,29-01-2024 09:53:07,29-01-2024 09:53:07,0.228s,PASSED
"navigateToUrl(""https://comet.jainam.in/#/startup"")",Chrome 120.0.0.0,,,29-01-2024 09:53:07,29-01-2024 09:53:17,9.376s,PASSED
"click(findTestObject(""Object Repository/Page_Comet/a_LOGIN WITH SPACE""))",Chrome 120.0.0.0,,,29-01-2024 09:53:17,29-01-2024 09:53:24,7.072s,PASSED
"setText(findTestObject(""user_id/input_User Id_text_form ng-pristine ng-invalid ng-touched""), ""M3903"")",Chrome 120.0.0.0,,,29-01-2024 09:53:24,29-01-2024 09:53:27,2.820s,PASSED
"setText(findTestObject(""user_pass/input_Password_LoginPassword""), ""Nirav@789"")",Chrome 120.0.0.0,,,29-01-2024 09:53:27,29-01-2024 09:53:27,0.786s,PASSED
"sendKeys(findTestObject(""loginnow_button/a_Login Now""), Keys.chord(ENTER))",Chrome 120.0.0.0,,,29-01-2024 09:53:27,29-01-2024 09:53:28,0.476s,PASSED
"setText(findTestObject(""Login_ID_01/input_text_form ng-untouched ng-pristine ng_7a20de""), ""8"")",Chrome 120.0.0.0,,,29-01-2024 09:53:28,29-01-2024 09:53:30,1.862s,PASSED
"setText(findTestObject(""Login_ID_02/input_Enter Pin_text_form ng-untouched ng-pristine ng-invalid""), ""8"")",Chrome 120.0.0.0,,,29-01-2024 09:53:30,29-01-2024 09:53:31,0.780s,PASSED
"setText(findTestObject(""Login_ID_03/input_Enter Pin_text_form ng-untouched ng-pristine ng-invalid""), ""8"")",Chrome 120.0.0.0,,,29-01-2024 09:53:31,29-01-2024 09:53:31,0.810s,PASSED
"setText(findTestObject(""Login_ID_04/input_Enter Pin_text_form ng-untouched ng-pristine ng-invalid""), ""8"")",Chrome 120.0.0.0,,,29-01-2024 09:53:31,29-01-2024 09:53:32,0.790s,PASSED
"click(findTestObject(""Object Repository/Page_Dashboard  Comet/a_Reports""))",Chrome 120.0.0.0,,,29-01-2024 09:53:32,29-01-2024 09:53:37,4.727s,PASSED
"click(findTestObject(""Object Repository/Page_Dashboard  Comet/a_Dividend Report""))",Chrome 120.0.0.0,,,29-01-2024 09:53:37,29-01-2024 09:53:37,0.548s,PASSED
"click(findTestObject(""Object Repository/Page_Dashboard  Comet/span_2023-2024""))",Chrome 120.0.0.0,,,29-01-2024 09:53:37,29-01-2024 09:53:44,6.608s,PASSED
"click(findTestObject(""Object Repository/Page_Dashboard  Comet/li_2023-2024""))",Chrome 120.0.0.0,,,29-01-2024 09:53:44,29-01-2024 09:53:51,6.560s,PASSED
"click(findTestObject(""Object Repository/Page_Dashboard  Comet/button_Submit""))",Chrome 120.0.0.0,,,29-01-2024 09:53:51,29-01-2024 09:53:51,0.563s,PASSED
